............
----------------------------------------------------------------------
Ran 12 tests in 0.131s

OK
Name             Stmts   Miss Branch BrPart  Cover   Missing
------------------------------------------------------------
Collatz.py          46      0     18      0   100%
TestCollatz.py      54      0      0      0   100%
------------------------------------------------------------
TOTAL              100      0     18      0   100%
